{
  "web0000": [{
    "urlSeq": "ko",
    "custId": "y123123123"
  }],
  "web0001": [{
    "urlSeq": "ko",
    "custName": "李偉哲",
    "orderMainSeq": "201811290905002",
    "orderStatus": "1",
    "piwLevel": "3",
    "updateDate": "2019/02/15 10:05"
  }],
  "web0002": [{
    "urlSeq": "ko"
  }],
  "web0003": [{
    "urlSeq": "ko"
  }],
  "web0004": [{
    "urlSeq": "ko",
    "pdf": "string"
  }],
  "web0005": [{
    "urlSeq": "ko"
  }],
  "web0101": [{
    "urlSeq": "ko",
    "docReview": [{
      "category": "01",
      "orderDtlSeq": "140956005377",
      "productCode": "PIB6",
      "productName": "鋒裕匯理(II)日本股票基金Ａ２(歐元)",
      "productTranCode": "string",
      "productTranName": "string",
      "signDOC": [{
          "dOCCode": "EF009",
          "dOCName": "停損停利約定通知書",
          "fileExists": "Y",
          "proCode": "PIB6"
        },
        {
          "dOCCode": "EF036",
          "dOCName": "報酬揭露表",
          "fileExists": "Y",
          "proCode": "PIB6"
        },
        {
          "dOCName": "產品資訊(含公開說明書等相關資料)",
          "dOCURL": "https://www.google.com",
          "fileExists": "Y"
        }
      ],
      "type": "string"
    }]
  }],
  "web0102": [{
    "urlSeq": "ko",
    "header": {
      "rtnCode": "M0078",
      "rtnMsg": "訂單錯誤無法執行"
    }
  }]
}
